1593827161
a:2:{s:7:"content";s:3122:"<h2>General Chairs</h2>
<p><i class="fa fa-envelope"></i> <a href="mailto:&#99;&#104;&#97;&#105;&#114;&#50;&#48;&#50;&#49;&#64;&#97;&#99;&#109;&#46;&#109;&#111;&#98;&#105;&#108;&#101;&#104;&#99;&#105;&#46;&#111;&#114;&#103;">&#99;&#104;&#97;&#105;&#114;&#50;&#48;&#50;&#49;&#64;&#97;&#99;&#109;&#46;&#109;&#111;&#98;&#105;&#108;&#101;&#104;&#99;&#105;&#46;&#111;&#114;&#103;</a></p>
<div class="sc-columns" style="columns:2 auto;-moz-columns:2 auto;column-gap:normal;-moz-column-gap:normal;">
<p><div style="float:left; margin-right:30px;"><img src="https://hci.cs.umanitoba.ca/assets/images/people/_bio/marcos.jpg" alt="Portrait of Marcos Serrano" /></div></p>
<p><strong>Marcos Serrano</strong><br />
IRIT - University of Toulouse, France</p>
<p><div style="float:left; margin-right:30px;"><img src="https://hci.cs.umanitoba.ca/assets/images/people/_bio/marcos.jpg" alt="Portrait of Marcos Serrano" /></div></p>
<p><strong>Jessica Cauchard</strong><br />
Ben Gurion University of the Negev, Israel</p>
</div>
<h2>PC chairs</h2>
<p>program2021</p>
<ul>
<li>Anne Roudaut, University of Bristol, UK</li>
<li>Sebastian Boring, Aalborg University,Denmark</li>
</ul>
<h2>Publicity/Social Media/Web</h2>
<p>web2021</p>
<ul>
<li>Emeline Brule, University of Sussex, UK</li>
<li>Katta Spiel,  TU Wien Austria</li>
</ul>
<h2>Local</h2>
<p>local2021</p>
<p>Emmanuel Dubois, IRIT - University of Toulouse, France </p>
<h2>Poster</h2>
<p>posters2021</p>
<ul>
<li>Andrea Bianchi, KAIST, Korea</li>
<li>Anastasia Kuzminykh, University of Waterloo, Canada</li>
</ul>
<h2>Demo</h2>
<p>demos2021   </p>
<ul>
<li>Florian Alt, Bundeswehr University, Germany</li>
<li>Barrett Ens, Monash University, Australia</li>
</ul>
<h2>Tutorial</h2>
<p>tutorials2021</p>
<ul>
<li>Daniela Busse, eBay, USA</li>
<li>Andrés Lucero, Aalto University, Finland</li>
</ul>
<h2>Sponsors</h2>
<p>sponsor2021</p>
<ul>
<li>Martin Pielot, Google, Germany</li>
<li>Wendy Ju, Cornell Tech, USA</li>
</ul>
<h2>Doctoral Consortium</h2>
<p>dc2021 </p>
<ul>
<li>Xing-Dong Yang, Dartmouth College, USA</li>
<li>Audrey Girouard, Carleton University, Canada</li>
</ul>
<h2>Workshop</h2>
<p>workshops2021   </p>
<ul>
<li>Matjaz Kljun, University of Primorska, Slovenia</li>
<li>Klen Čopič Pucihar, University of Primorska, Slovenia</li>
</ul>
<h2>Panel</h2>
<p>panels2021  </p>
<ul>
<li>Anicia Peters, University of Namibia, Namibia</li>
<li>Joel Lanir, University of Haifa, Israel</li>
</ul>
<h2>Student Design Competition</h2>
<p>sdc2021 </p>
<ul>
<li>Eva Hornecker,    Bauhaus-Universität Weimar, Germany</li>
<li>David Sirkin, Stanford University, USA</li>
</ul>
<h2>Accessibility</h2>
<p>access2021</p>
<ul>
<li>Anke Brock, ENAC - University of Toulouse France</li>
<li>João Guerreiro, University of Lisbon, Portugal</li>
</ul>
<h2>Sustainability</h2>
<p>sustain2021</p>
<ul>
<li>Sandra Bardot University of Manitoba, Canada</li>
<li>Alix Goguey, Grenoble Alpes University, France</li>
</ul>
<h2>Publication</h2>
<p>publications2021</p>
<ul>
<li>Mathieu Raynal, IRIT - University of Toulouse, France</li>
<li>Thomas Pietrzak, University of Lille, France</li>
</ul>";s:12:"content_meta";a:1:{s:13:"shortcodeMeta";a:1:{s:15:"shortcodeAssets";a:1:{s:3:"css";a:1:{i:0;s:69:"//maxcdn.bootstrapcdn.com/font-awesome/4.6.1/css/font-awesome.min.css";}}}}}