1593903562
a:2:{s:7:"content";s:2446:"<p><img alt="A vector illustration of Toulouse" src="/user/pages/01.home/banner.svg" /></p>
<h2>Welcome to MobileHCI 2021!</h2>
<div class="sc-columns" style="columns:2 auto;-moz-columns:2 auto;column-gap:normal;-moz-column-gap:normal;">
<p>After over 20 years of shaping research, development and practice in mobile devices and services, MobileHCI updates its name and becomes the ACM International Conference on Mobile Human-Computer Interaction. As we enter a new decade, this conference series is adapting to reflect the societal and technological transition where mobility has become pervasive and prime to our lives.</p>
<p>Our community and work is ever more relevant as we bring together academics, designers, and practitioners from multiple disciplines to discuss the challenges and future of people interacting with and through technologies, applications, and services in a mobile world. </p>
<p>Attendees will hear from world-leading experts in research talks and workshops; see, touch, and feel new mobile experiences in our demo and poster sessions; as well as be inspired by industry and academic thought-leaders during our panels; while still having time to network and form future collaborations.</p>
<p>MobileHCI 2021 welcomes contributions related to any aspect of mobile Human-Computer Interaction, from technology, to user experience, methodology, theoretical contributions, and beyond. Our conference also solicits proposals for workshops, demonstrations, tutorials, and industrial case study papers. We look forward to seeing you in Toulouse in September  2021!</p>
</div>
<h2>Upcoming Deadlines and news</h2>
<div class="sc-columns" style="columns:2 auto;-moz-columns:2 auto;column-gap:normal;-moz-column-gap:normal;">
<div ></div>
<h3>Important deadlines</h3>
<table>
<thead>
<tr>
<th></th>
<th></th>
</tr>
</thead>
<tbody>
<tr>
<td>Paper deadline</td>
<td>February 4th</td>
</tr>
<tr>
<td>Final notifications (post rebuttal)</td>
<td>May 10th</td>
</tr>
<tr>
<td>All other tracks notifications</td>
<td>May 21st</td>
</tr>
<tr>
<td>All other tracks deadline</td>
<td>June 18th</td>
</tr>
<tr>
<td>All other tracks camera ready</td>
<td>June 30th</td>
</tr>
</tbody>
</table>
<div >
<p><a class="twitter-timeline" data-height="300" href="https://twitter.com/ACMMobileHCI?ref_src=twsrc%5Etfw">Tweets by ACMMobileHCI</a> <script async src="https://platform.twitter.com/widgets.js" charset="utf-8"></script></p>
</div>
</div>";s:12:"content_meta";N;}