1593840049
a:2:{s:7:"content";s:802:"<h3>Overview</h3>
<p>[Full papers]() are ...</p>
<p>Demos are...
Late breaking works...
Tutorials are...
Workshops are...
Industrial perspectives are:</p>
<p>Calls for students:</p>
<ul>
<li>Doctoral consortium</li>
<li>Student Volunteers</li>
<li>Student Competition</li>
</ul>
<div class="test" style="width:calc(50%-40px); padding:20px; background-color:black; color:white;"">
<table>
<thead>
<tr>
<th></th>
<th></th>
</tr>
</thead>
<tbody>
<tr>
<td>Paper deadline</td>
<td>February 4th</td>
</tr>
<tr>
<td>Final notifications (post rebuttal)</td>
<td>May 10th</td>
</tr>
<tr>
<td>All other tracks notifications</td>
<td>May 21st</td>
</tr>
<tr>
<td>All other tracks deadline</td>
<td>June 18th</td>
</tr>
<tr>
<td>All other tracks camera ready</td>
<td>June 30th</td>
</tr>
</tbody>
</table>
</div>";s:12:"content_meta";N;}