1593925003
a:2:{s:7:"content";s:9499:"<h2>General Chairs</h2>
<p><i class="fa fa-envelope"></i> <a href="mailto:&#99;&#104;&#97;&#105;&#114;&#50;&#48;&#50;&#49;&#64;&#97;&#99;&#109;&#46;&#109;&#111;&#98;&#105;&#108;&#101;&#104;&#99;&#105;&#46;&#111;&#114;&#103;">&#99;&#104;&#97;&#105;&#114;&#50;&#48;&#50;&#49;&#64;&#97;&#99;&#109;&#46;&#109;&#111;&#98;&#105;&#108;&#101;&#104;&#99;&#105;&#46;&#111;&#114;&#103;</a></p>
<div class="two-columns">
<div class="column">
<p><div class="chair-person"><img src="https://hci.cs.umanitoba.ca/assets/images/people/_bio/marcos.jpg" alt="Portrait of Marcos Serrano" />
                    <p><span class="chair-person-name">Marcos Serrano</span><br>IRIT - University of Toulouse, France</p>
                </div></p>
</div>
<div class="column">
<p><div class="chair-person"><img src="https://hci.cs.umanitoba.ca/assets/images/people/_bio/marcos.jpg" alt="Portrait of Marcos Serrano" />
                    <p><span class="chair-person-name">Jessica Cauchard</span><br>Ben Gurion University of the Negev, Israel</p>
                </div></p>
</div>
</div>
<h2>PC chairs</h2>
<p><i class="fa fa-envelope"></i> <a href="mailto:&#112;&#114;&#111;&#103;&#114;&#97;&#109;&#50;&#48;&#50;&#49;&#64;&#97;&#99;&#109;&#46;&#109;&#111;&#98;&#105;&#108;&#101;&#104;&#99;&#105;&#46;&#111;&#114;&#103;">&#112;&#114;&#111;&#103;&#114;&#97;&#109;&#50;&#48;&#50;&#49;&#64;&#97;&#99;&#109;&#46;&#109;&#111;&#98;&#105;&#108;&#101;&#104;&#99;&#105;&#46;&#111;&#114;&#103;</a>
<div class="two-columns"><div class="column"><div class="chair-person"><img src="https://hci.cs.umanitoba.ca/assets/images/people/_bio/marcos.jpg" alt="Portrait of Marcos Serrano" />
                    <p><span class="chair-person-name">Anne Roudaut</span><br>University of Bristol, UK</p>
                </div></p>
</div>
<div class="column">
<p><div class="chair-person"><img src="https://hci.cs.umanitoba.ca/assets/images/people/_bio/marcos.jpg" alt="Portrait of Marcos Serrano" />
                    <p><span class="chair-person-name">Sebastian Boring</span><br>Aalborg University, Denmark</p>
                </div></div></div></p>
<h2>Publicity/Social Media/Web</h2>
<p><i class="fa fa-envelope"></i> <a href="mailto:&#119;&#101;&#98;&#50;&#48;&#50;&#49;&#64;&#97;&#99;&#109;&#46;&#109;&#111;&#98;&#105;&#108;&#101;&#104;&#99;&#105;&#46;&#111;&#114;&#103;">&#119;&#101;&#98;&#50;&#48;&#50;&#49;&#64;&#97;&#99;&#109;&#46;&#109;&#111;&#98;&#105;&#108;&#101;&#104;&#99;&#105;&#46;&#111;&#114;&#103;</a>
<div class="two-columns"><div class="column"><div class="chair-person"><img src="https://hci.cs.umanitoba.ca/assets/images/people/_bio/marcos.jpg" alt="Portrait of Marcos Serrano" />
                    <p><span class="chair-person-name">Émeline Brulé</span><br>University of Sussex, UK</p>
                </div></p>
</div>
<div class="column">
<p><div class="chair-person"><img src="https://hci.cs.umanitoba.ca/assets/images/people/_bio/marcos.jpg" alt="Portrait of Marcos Serrano" />
                    <p><span class="chair-person-name">Katta Spiel</span><br>TU Wien, Austria</p>
                </div></div></div></p>
<h2>Local</h2>
<p><i class="fa fa-envelope"></i> <a href="mailto:&#108;&#111;&#99;&#97;&#108;&#50;&#48;&#50;&#49;&#64;&#97;&#99;&#109;&#46;&#109;&#111;&#98;&#105;&#108;&#101;&#104;&#99;&#105;&#46;&#111;&#114;&#103;">&#108;&#111;&#99;&#97;&#108;&#50;&#48;&#50;&#49;&#64;&#97;&#99;&#109;&#46;&#109;&#111;&#98;&#105;&#108;&#101;&#104;&#99;&#105;&#46;&#111;&#114;&#103;</a>
<div class="two-columns"><div class="column">
<div class="chair-person"><img src="https://hci.cs.umanitoba.ca/assets/images/people/_bio/marcos.jpg" alt="Portrait of Marcos Serrano" />
                    <p><span class="chair-person-name">Emmanuel Dubois</span><br>IRIT - University of Toulouse, France </p>
                </div></p>
</div>
</div>
<h2>Poster</h2>
<p><i class="fa fa-envelope"></i> <a href="mailto:&#112;&#111;&#115;&#116;&#101;&#114;&#115;&#50;&#48;&#50;&#49;&#64;&#97;&#99;&#109;&#46;&#109;&#111;&#98;&#105;&#108;&#101;&#104;&#99;&#105;&#46;&#111;&#114;&#103;">&#112;&#111;&#115;&#116;&#101;&#114;&#115;&#50;&#48;&#50;&#49;&#64;&#97;&#99;&#109;&#46;&#109;&#111;&#98;&#105;&#108;&#101;&#104;&#99;&#105;&#46;&#111;&#114;&#103;</a></p>
<ul>
<li>Andrea Bianchi, KAIST, Korea</li>
<li>Anastasia Kuzminykh, University of Waterloo, Canada</li>
</ul>
<h2>Demo</h2>
<p><i class="fa fa-envelope"></i> <a href="mailto:&#100;&#101;&#109;&#111;&#115;&#50;&#48;&#50;&#49;&#64;&#97;&#99;&#109;&#46;&#109;&#111;&#98;&#105;&#108;&#101;&#104;&#99;&#105;&#46;&#111;&#114;&#103;">&#100;&#101;&#109;&#111;&#115;&#50;&#48;&#50;&#49;&#64;&#97;&#99;&#109;&#46;&#109;&#111;&#98;&#105;&#108;&#101;&#104;&#99;&#105;&#46;&#111;&#114;&#103;</a></p>
<ul>
<li>Florian Alt, Bundeswehr University, Germany</li>
<li>Barrett Ens, Monash University, Australia</li>
</ul>
<h2>Tutorial</h2>
<p><i class="fa fa-envelope"></i> <a href="mailto:&#116;&#117;&#116;&#111;&#114;&#105;&#97;&#108;&#115;&#50;&#48;&#50;&#49;&#64;&#97;&#99;&#109;&#46;&#109;&#111;&#98;&#105;&#108;&#101;&#104;&#99;&#105;&#46;&#111;&#114;&#103;">&#116;&#117;&#116;&#111;&#114;&#105;&#97;&#108;&#115;&#50;&#48;&#50;&#49;&#64;&#97;&#99;&#109;&#46;&#109;&#111;&#98;&#105;&#108;&#101;&#104;&#99;&#105;&#46;&#111;&#114;&#103;</a></p>
<ul>
<li>Daniela Busse, eBay, USA</li>
<li>Andrés Lucero, Aalto University, Finland</li>
</ul>
<h2>Sponsors</h2>
<p><i class="fa fa-envelope"></i> <a href="mailto:&#115;&#112;&#111;&#110;&#115;&#111;&#114;&#50;&#48;&#50;&#49;&#64;&#97;&#99;&#109;&#46;&#109;&#111;&#98;&#105;&#108;&#101;&#104;&#99;&#105;&#46;&#111;&#114;&#103;">&#115;&#112;&#111;&#110;&#115;&#111;&#114;&#50;&#48;&#50;&#49;&#64;&#97;&#99;&#109;&#46;&#109;&#111;&#98;&#105;&#108;&#101;&#104;&#99;&#105;&#46;&#111;&#114;&#103;</a></p>
<ul>
<li>Martin Pielot, Google, Germany</li>
<li>Wendy Ju, Cornell Tech, USA</li>
</ul>
<h2>Doctoral Consortium</h2>
<p><i class="fa fa-envelope"></i> <a href="mailto:&#100;&#99;&#50;&#48;&#50;&#49;&#64;&#97;&#99;&#109;&#46;&#109;&#111;&#98;&#105;&#108;&#101;&#104;&#99;&#105;&#46;&#111;&#114;&#103;">&#100;&#99;&#50;&#48;&#50;&#49;&#64;&#97;&#99;&#109;&#46;&#109;&#111;&#98;&#105;&#108;&#101;&#104;&#99;&#105;&#46;&#111;&#114;&#103;</a></p>
<ul>
<li>Xing-Dong Yang, Dartmouth College, USA</li>
<li>Audrey Girouard, Carleton University, Canada</li>
</ul>
<h2>Workshop</h2>
<p><i class="fa fa-envelope"></i> <a href="mailto:&#119;&#111;&#114;&#107;&#115;&#104;&#111;&#112;&#115;&#50;&#48;&#50;&#49;&#64;&#97;&#99;&#109;&#46;&#109;&#111;&#98;&#105;&#108;&#101;&#104;&#99;&#105;&#46;&#111;&#114;&#103;">&#119;&#111;&#114;&#107;&#115;&#104;&#111;&#112;&#115;&#50;&#48;&#50;&#49;&#64;&#97;&#99;&#109;&#46;&#109;&#111;&#98;&#105;&#108;&#101;&#104;&#99;&#105;&#46;&#111;&#114;&#103;</a></p>
<ul>
<li>Matjaz Kljun, University of Primorska, Slovenia</li>
<li>Klen Čopič Pucihar, University of Primorska, Slovenia</li>
</ul>
<h2>Panel</h2>
<p><i class="fa fa-envelope"></i> <a href="mailto:&#112;&#97;&#110;&#101;&#108;&#115;&#50;&#48;&#50;&#49;&#64;&#97;&#99;&#109;&#46;&#109;&#111;&#98;&#105;&#108;&#101;&#104;&#99;&#105;&#46;&#111;&#114;&#103;">&#112;&#97;&#110;&#101;&#108;&#115;&#50;&#48;&#50;&#49;&#64;&#97;&#99;&#109;&#46;&#109;&#111;&#98;&#105;&#108;&#101;&#104;&#99;&#105;&#46;&#111;&#114;&#103;</a></p>
<ul>
<li>Anicia Peters, University of Namibia, Namibia</li>
<li>Joel Lanir, University of Haifa, Israel</li>
</ul>
<h2>Student Design Competition</h2>
<p><i class="fa fa-envelope"></i> <a href="mailto:&#115;&#100;&#99;&#50;&#48;&#50;&#49;&#64;&#97;&#99;&#109;&#46;&#109;&#111;&#98;&#105;&#108;&#101;&#104;&#99;&#105;&#46;&#111;&#114;&#103;">&#115;&#100;&#99;&#50;&#48;&#50;&#49;&#64;&#97;&#99;&#109;&#46;&#109;&#111;&#98;&#105;&#108;&#101;&#104;&#99;&#105;&#46;&#111;&#114;&#103;</a></p>
<ul>
<li>Eva Hornecker,    Bauhaus-Universität Weimar, Germany</li>
<li>David Sirkin, Stanford University, USA</li>
</ul>
<h2>Accessibility</h2>
<p><i class="fa fa-envelope"></i> <a href="mailto:&#97;&#99;&#99;&#101;&#115;&#115;&#50;&#48;&#50;&#49;&#64;&#97;&#99;&#109;&#46;&#109;&#111;&#98;&#105;&#108;&#101;&#104;&#99;&#105;&#46;&#111;&#114;&#103;">&#97;&#99;&#99;&#101;&#115;&#115;&#50;&#48;&#50;&#49;&#64;&#97;&#99;&#109;&#46;&#109;&#111;&#98;&#105;&#108;&#101;&#104;&#99;&#105;&#46;&#111;&#114;&#103;</a></p>
<ul>
<li>Anke Brock, ENAC - University of Toulouse France</li>
<li>João Guerreiro, University of Lisbon, Portugal</li>
</ul>
<h2>Sustainability</h2>
<p><i class="fa fa-envelope"></i> <a href="mailto:&#115;&#117;&#115;&#116;&#97;&#105;&#110;&#50;&#48;&#50;&#49;&#64;&#97;&#99;&#109;&#46;&#109;&#111;&#98;&#105;&#108;&#101;&#104;&#99;&#105;&#46;&#111;&#114;&#103;">&#115;&#117;&#115;&#116;&#97;&#105;&#110;&#50;&#48;&#50;&#49;&#64;&#97;&#99;&#109;&#46;&#109;&#111;&#98;&#105;&#108;&#101;&#104;&#99;&#105;&#46;&#111;&#114;&#103;</a></p>
<ul>
<li>Sandra Bardot University of Manitoba, Canada</li>
<li>Alix Goguey, Grenoble Alpes University, France</li>
</ul>
<h2>Publication</h2>
<p><i class="fa fa-envelope"></i> <a href="mailto:&#112;&#117;&#98;&#108;&#105;&#99;&#97;&#116;&#105;&#111;&#110;&#115;&#50;&#48;&#50;&#49;&#64;&#97;&#99;&#109;&#46;&#109;&#111;&#98;&#105;&#108;&#101;&#104;&#99;&#105;&#46;&#111;&#114;&#103;">&#112;&#117;&#98;&#108;&#105;&#99;&#97;&#116;&#105;&#111;&#110;&#115;&#50;&#48;&#50;&#49;&#64;&#97;&#99;&#109;&#46;&#109;&#111;&#98;&#105;&#108;&#101;&#104;&#99;&#105;&#46;&#111;&#114;&#103;</a></p>
<ul>
<li>Mathieu Raynal, IRIT - University of Toulouse, France</li>
<li>Thomas Pietrzak, University of Lille, France</li>
</ul>";s:12:"content_meta";a:1:{s:13:"shortcodeMeta";a:1:{s:15:"shortcodeAssets";a:1:{s:3:"css";a:1:{i:0;s:69:"//maxcdn.bootstrapcdn.com/font-awesome/4.6.1/css/font-awesome.min.css";}}}}}